^C:\USERS\DRAGONART\DESKTOP\FOTS\FOTS_UTIL\MAIN.CPP
C:\USERS\DRAGONART\DESKTOP\FOTS\FOTS_UTIL\DEBUG\MAIN.CPP.NATIVECODEANALYSIS.XML
C:\USERS\DRAGONART\DESKTOP\FOTS\FOTS_UTIL\DEBUG\MAIN.OBJ
C:\USERS\DRAGONART\DESKTOP\FOTS\FOTS_UTIL\DEBUG\VC110.PDB
^C:\USERS\DRAGONART\DESKTOP\FOTS\FOTS_UTIL\NCBI.CPP
C:\USERS\DRAGONART\DESKTOP\FOTS\FOTS_UTIL\DEBUG\NCBI.OBJ
C:\USERS\DRAGONART\DESKTOP\FOTS\FOTS_UTIL\DEBUG\VC110.PDB
C:\USERS\DRAGONART\DESKTOP\FOTS\FOTS_UTIL\DEBUG\NCBI.SBR
