^C:\USERS\DRAGONART\DESKTOP\FOTS\FOTS_CORE\AMINOACID.CPP|C:\USERS\DRAGONART\DESKTOP\FOTS\FOTS_CORE\AMINOACIDGROUP.CPP|C:\USERS\DRAGONART\DESKTOP\FOTS\FOTS_CORE\CODON.CPP|C:\USERS\DRAGONART\DESKTOP\FOTS\FOTS_CORE\DATABASE.CPP|C:\USERS\DRAGONART\DESKTOP\FOTS\FOTS_CORE\DNA.CPP|C:\USERS\DRAGONART\DESKTOP\FOTS\FOTS_CORE\FOTS_CORE.CPP|C:\USERS\DRAGONART\DESKTOP\FOTS\FOTS_CORE\MUTATION_AMINOACID.CPP|C:\USERS\DRAGONART\DESKTOP\FOTS\FOTS_CORE\MUTATION_CODON.CPP|C:\USERS\DRAGONART\DESKTOP\FOTS\FOTS_CORE\MUTATION_DNA.CPP|C:\USERS\DRAGONART\DESKTOP\FOTS\FOTS_CORE\MUTATION_NUCLEOTIDE.CPP|C:\USERS\DRAGONART\DESKTOP\FOTS\FOTS_CORE\MUTATION_PEPTIDE.CPP|C:\USERS\DRAGONART\DESKTOP\FOTS\FOTS_CORE\NUCLEOTIDE.CPP|C:\USERS\DRAGONART\DESKTOP\FOTS\FOTS_CORE\PEPTIDE.CPP|C:\USERS\DRAGONART\DESKTOP\FOTS\FOTS_CORE\PEPTIDECLASS.CPP|C:\USERS\DRAGONART\DESKTOP\FOTS\FOTS_CORE\RNA.CPP
C:\USERS\DRAGONART\DESKTOP\FOTS\FOTS_CORE\DEBUG\FOTS_CORE.SBR
C:\USERS\DRAGONART\DESKTOP\FOTS\FOTS_CORE\DEBUG\RNA.SBR
C:\USERS\DRAGONART\DESKTOP\FOTS\FOTS_CORE\DEBUG\PEPTIDECLASS.SBR
C:\USERS\DRAGONART\DESKTOP\FOTS\FOTS_CORE\DEBUG\PEPTIDE.SBR
C:\USERS\DRAGONART\DESKTOP\FOTS\FOTS_CORE\DEBUG\NUCLEOTIDE.SBR
C:\USERS\DRAGONART\DESKTOP\FOTS\FOTS_CORE\DEBUG\MUTATION_PEPTIDE.SBR
C:\USERS\DRAGONART\DESKTOP\FOTS\FOTS_CORE\DEBUG\MUTATION_NUCLEOTIDE.SBR
C:\USERS\DRAGONART\DESKTOP\FOTS\FOTS_CORE\DEBUG\MUTATION_DNA.SBR
C:\USERS\DRAGONART\DESKTOP\FOTS\FOTS_CORE\DEBUG\MUTATION_CODON.SBR
C:\USERS\DRAGONART\DESKTOP\FOTS\FOTS_CORE\DEBUG\MUTATION_AMINOACID.SBR
C:\USERS\DRAGONART\DESKTOP\FOTS\FOTS_CORE\DEBUG\DNA.SBR
C:\USERS\DRAGONART\DESKTOP\FOTS\FOTS_CORE\DEBUG\DATABASE.SBR
C:\USERS\DRAGONART\DESKTOP\FOTS\FOTS_CORE\DEBUG\CODON.SBR
C:\USERS\DRAGONART\DESKTOP\FOTS\FOTS_CORE\DEBUG\AMINOACIDGROUP.SBR
C:\USERS\DRAGONART\DESKTOP\FOTS\FOTS_CORE\DEBUG\AMINOACID.SBR
C:\USERS\DRAGONART\DESKTOP\FOTS\FOTS_CORE\DEBUG\AMINOACID.OBJ
C:\USERS\DRAGONART\DESKTOP\FOTS\FOTS_CORE\DEBUG\AMINOACIDGROUP.OBJ
C:\USERS\DRAGONART\DESKTOP\FOTS\FOTS_CORE\DEBUG\CODON.OBJ
C:\USERS\DRAGONART\DESKTOP\FOTS\FOTS_CORE\DEBUG\DATABASE.OBJ
C:\USERS\DRAGONART\DESKTOP\FOTS\FOTS_CORE\DEBUG\DNA.OBJ
C:\USERS\DRAGONART\DESKTOP\FOTS\FOTS_CORE\DEBUG\MUTATION_AMINOACID.OBJ
C:\USERS\DRAGONART\DESKTOP\FOTS\FOTS_CORE\DEBUG\MUTATION_CODON.OBJ
C:\USERS\DRAGONART\DESKTOP\FOTS\FOTS_CORE\DEBUG\MUTATION_DNA.OBJ
C:\USERS\DRAGONART\DESKTOP\FOTS\FOTS_CORE\DEBUG\MUTATION_NUCLEOTIDE.OBJ
C:\USERS\DRAGONART\DESKTOP\FOTS\FOTS_CORE\DEBUG\MUTATION_PEPTIDE.OBJ
C:\USERS\DRAGONART\DESKTOP\FOTS\FOTS_CORE\DEBUG\NUCLEOTIDE.OBJ
C:\USERS\DRAGONART\DESKTOP\FOTS\FOTS_CORE\DEBUG\PEPTIDE.OBJ
C:\USERS\DRAGONART\DESKTOP\FOTS\FOTS_CORE\DEBUG\PEPTIDECLASS.OBJ
C:\USERS\DRAGONART\DESKTOP\FOTS\FOTS_CORE\DEBUG\RNA.OBJ
C:\USERS\DRAGONART\DESKTOP\FOTS\FOTS_CORE\DEBUG\FOTS_CORE.OBJ
^C:\USERS\DRAGONART\DESKTOP\FOTS\FOTS_CORE\AMINOACID.CPP
C:\USERS\DRAGONART\DESKTOP\FOTS\FOTS_CORE\DEBUG\VC110.PDB
^C:\USERS\DRAGONART\DESKTOP\FOTS\FOTS_CORE\AMINOACIDGROUP.CPP
C:\USERS\DRAGONART\DESKTOP\FOTS\FOTS_CORE\DEBUG\VC110.PDB
^C:\USERS\DRAGONART\DESKTOP\FOTS\FOTS_CORE\CODON.CPP
C:\USERS\DRAGONART\DESKTOP\FOTS\FOTS_CORE\DEBUG\VC110.PDB
^C:\USERS\DRAGONART\DESKTOP\FOTS\FOTS_CORE\DATABASE.CPP
C:\USERS\DRAGONART\DESKTOP\FOTS\FOTS_CORE\DEBUG\VC110.PDB
^C:\USERS\DRAGONART\DESKTOP\FOTS\FOTS_CORE\DNA.CPP
C:\USERS\DRAGONART\DESKTOP\FOTS\FOTS_CORE\DEBUG\VC110.PDB
^C:\USERS\DRAGONART\DESKTOP\FOTS\FOTS_CORE\MUTATION_AMINOACID.CPP
C:\USERS\DRAGONART\DESKTOP\FOTS\FOTS_CORE\DEBUG\VC110.PDB
^C:\USERS\DRAGONART\DESKTOP\FOTS\FOTS_CORE\MUTATION_CODON.CPP
C:\USERS\DRAGONART\DESKTOP\FOTS\FOTS_CORE\DEBUG\VC110.PDB
^C:\USERS\DRAGONART\DESKTOP\FOTS\FOTS_CORE\MUTATION_DNA.CPP
C:\USERS\DRAGONART\DESKTOP\FOTS\FOTS_CORE\DEBUG\VC110.PDB
^C:\USERS\DRAGONART\DESKTOP\FOTS\FOTS_CORE\MUTATION_NUCLEOTIDE.CPP
C:\USERS\DRAGONART\DESKTOP\FOTS\FOTS_CORE\DEBUG\VC110.PDB
^C:\USERS\DRAGONART\DESKTOP\FOTS\FOTS_CORE\MUTATION_PEPTIDE.CPP
C:\USERS\DRAGONART\DESKTOP\FOTS\FOTS_CORE\DEBUG\VC110.PDB
^C:\USERS\DRAGONART\DESKTOP\FOTS\FOTS_CORE\NUCLEOTIDE.CPP
C:\USERS\DRAGONART\DESKTOP\FOTS\FOTS_CORE\DEBUG\VC110.PDB
^C:\USERS\DRAGONART\DESKTOP\FOTS\FOTS_CORE\PEPTIDE.CPP
C:\USERS\DRAGONART\DESKTOP\FOTS\FOTS_CORE\DEBUG\VC110.PDB
^C:\USERS\DRAGONART\DESKTOP\FOTS\FOTS_CORE\PEPTIDECLASS.CPP
C:\USERS\DRAGONART\DESKTOP\FOTS\FOTS_CORE\DEBUG\VC110.PDB
^C:\USERS\DRAGONART\DESKTOP\FOTS\FOTS_CORE\RNA.CPP
C:\USERS\DRAGONART\DESKTOP\FOTS\FOTS_CORE\DEBUG\VC110.PDB
^C:\USERS\DRAGONART\DESKTOP\FOTS\FOTS_CORE\FOTS_CORE.CPP
C:\USERS\DRAGONART\DESKTOP\FOTS\FOTS_CORE\DEBUG\VC110.PDB
