^C:\USERS\DRAGONART\DESKTOP\FOTS\FOTS_CORE\AMINOACID.CPP
/c /Zi /nologo /W3 /WX- /sdl /O2 /Oi /Oy- /GL /D _MBCS /Gm- /EHsc /MTd /GS /Gy /fp:precise /Zc:wchar_t /Zc:forScope /Fo"RELEASE\\" /Fd"RELEASE\VC110.PDB" /Gd /TP /analyze- C:\USERS\DRAGONART\DESKTOP\FOTS\FOTS_CORE\AMINOACID.CPP
^C:\USERS\DRAGONART\DESKTOP\FOTS\FOTS_CORE\AMINOACIDGROUP.CPP
/c /Zi /nologo /W3 /WX- /sdl /O2 /Oi /Oy- /GL /D _MBCS /Gm- /EHsc /MTd /GS /Gy /fp:precise /Zc:wchar_t /Zc:forScope /Fo"RELEASE\\" /Fd"RELEASE\VC110.PDB" /Gd /TP /analyze- C:\USERS\DRAGONART\DESKTOP\FOTS\FOTS_CORE\AMINOACIDGROUP.CPP
^C:\USERS\DRAGONART\DESKTOP\FOTS\FOTS_CORE\CODON.CPP
/c /Zi /nologo /W3 /WX- /sdl /O2 /Oi /Oy- /GL /D _MBCS /Gm- /EHsc /MTd /GS /Gy /fp:precise /Zc:wchar_t /Zc:forScope /Fo"RELEASE\\" /Fd"RELEASE\VC110.PDB" /Gd /TP /analyze- C:\USERS\DRAGONART\DESKTOP\FOTS\FOTS_CORE\CODON.CPP
^C:\USERS\DRAGONART\DESKTOP\FOTS\FOTS_CORE\DATABASE.CPP
/c /Zi /nologo /W3 /WX- /sdl /O2 /Oi /Oy- /GL /D _MBCS /Gm- /EHsc /MTd /GS /Gy /fp:precise /Zc:wchar_t /Zc:forScope /Fo"RELEASE\\" /Fd"RELEASE\VC110.PDB" /Gd /TP /analyze- C:\USERS\DRAGONART\DESKTOP\FOTS\FOTS_CORE\DATABASE.CPP
^C:\USERS\DRAGONART\DESKTOP\FOTS\FOTS_CORE\DNA.CPP
/c /Zi /nologo /W3 /WX- /sdl /O2 /Oi /Oy- /GL /D _MBCS /Gm- /EHsc /MTd /GS /Gy /fp:precise /Zc:wchar_t /Zc:forScope /Fo"RELEASE\\" /Fd"RELEASE\VC110.PDB" /Gd /TP /analyze- C:\USERS\DRAGONART\DESKTOP\FOTS\FOTS_CORE\DNA.CPP
^C:\USERS\DRAGONART\DESKTOP\FOTS\FOTS_CORE\MUTATION_AMINOACID.CPP
/c /Zi /nologo /W3 /WX- /sdl /O2 /Oi /Oy- /GL /D _MBCS /Gm- /EHsc /MTd /GS /Gy /fp:precise /Zc:wchar_t /Zc:forScope /Fo"RELEASE\\" /Fd"RELEASE\VC110.PDB" /Gd /TP /analyze- C:\USERS\DRAGONART\DESKTOP\FOTS\FOTS_CORE\MUTATION_AMINOACID.CPP
^C:\USERS\DRAGONART\DESKTOP\FOTS\FOTS_CORE\MUTATION_CODON.CPP
/c /Zi /nologo /W3 /WX- /sdl /O2 /Oi /Oy- /GL /D _MBCS /Gm- /EHsc /MTd /GS /Gy /fp:precise /Zc:wchar_t /Zc:forScope /Fo"RELEASE\\" /Fd"RELEASE\VC110.PDB" /Gd /TP /analyze- C:\USERS\DRAGONART\DESKTOP\FOTS\FOTS_CORE\MUTATION_CODON.CPP
^C:\USERS\DRAGONART\DESKTOP\FOTS\FOTS_CORE\MUTATION_DNA.CPP
/c /Zi /nologo /W3 /WX- /sdl /O2 /Oi /Oy- /GL /D _MBCS /Gm- /EHsc /MTd /GS /Gy /fp:precise /Zc:wchar_t /Zc:forScope /Fo"RELEASE\\" /Fd"RELEASE\VC110.PDB" /Gd /TP /analyze- C:\USERS\DRAGONART\DESKTOP\FOTS\FOTS_CORE\MUTATION_DNA.CPP
^C:\USERS\DRAGONART\DESKTOP\FOTS\FOTS_CORE\MUTATION_NUCLEOTIDE.CPP
/c /Zi /nologo /W3 /WX- /sdl /O2 /Oi /Oy- /GL /D _MBCS /Gm- /EHsc /MTd /GS /Gy /fp:precise /Zc:wchar_t /Zc:forScope /Fo"RELEASE\\" /Fd"RELEASE\VC110.PDB" /Gd /TP /analyze- C:\USERS\DRAGONART\DESKTOP\FOTS\FOTS_CORE\MUTATION_NUCLEOTIDE.CPP
^C:\USERS\DRAGONART\DESKTOP\FOTS\FOTS_CORE\MUTATION_PEPTIDE.CPP
/c /Zi /nologo /W3 /WX- /sdl /O2 /Oi /Oy- /GL /D _MBCS /Gm- /EHsc /MTd /GS /Gy /fp:precise /Zc:wchar_t /Zc:forScope /Fo"RELEASE\\" /Fd"RELEASE\VC110.PDB" /Gd /TP /analyze- C:\USERS\DRAGONART\DESKTOP\FOTS\FOTS_CORE\MUTATION_PEPTIDE.CPP
^C:\USERS\DRAGONART\DESKTOP\FOTS\FOTS_CORE\NUCLEOTIDE.CPP
/c /Zi /nologo /W3 /WX- /sdl /O2 /Oi /Oy- /GL /D _MBCS /Gm- /EHsc /MTd /GS /Gy /fp:precise /Zc:wchar_t /Zc:forScope /Fo"RELEASE\\" /Fd"RELEASE\VC110.PDB" /Gd /TP /analyze- C:\USERS\DRAGONART\DESKTOP\FOTS\FOTS_CORE\NUCLEOTIDE.CPP
^C:\USERS\DRAGONART\DESKTOP\FOTS\FOTS_CORE\PEPTIDE.CPP
/c /Zi /nologo /W3 /WX- /sdl /O2 /Oi /Oy- /GL /D _MBCS /Gm- /EHsc /MTd /GS /Gy /fp:precise /Zc:wchar_t /Zc:forScope /Fo"RELEASE\\" /Fd"RELEASE\VC110.PDB" /Gd /TP /analyze- C:\USERS\DRAGONART\DESKTOP\FOTS\FOTS_CORE\PEPTIDE.CPP
^C:\USERS\DRAGONART\DESKTOP\FOTS\FOTS_CORE\PEPTIDECLASS.CPP
/c /Zi /nologo /W3 /WX- /sdl /O2 /Oi /Oy- /GL /D _MBCS /Gm- /EHsc /MTd /GS /Gy /fp:precise /Zc:wchar_t /Zc:forScope /Fo"RELEASE\\" /Fd"RELEASE\VC110.PDB" /Gd /TP /analyze- C:\USERS\DRAGONART\DESKTOP\FOTS\FOTS_CORE\PEPTIDECLASS.CPP
^C:\USERS\DRAGONART\DESKTOP\FOTS\FOTS_CORE\RNA.CPP
/c /Zi /nologo /W3 /WX- /sdl /O2 /Oi /Oy- /GL /D _MBCS /Gm- /EHsc /MTd /GS /Gy /fp:precise /Zc:wchar_t /Zc:forScope /Fo"RELEASE\\" /Fd"RELEASE\VC110.PDB" /Gd /TP /analyze- C:\USERS\DRAGONART\DESKTOP\FOTS\FOTS_CORE\RNA.CPP
^C:\USERS\DRAGONART\DESKTOP\FOTS\FOTS_CORE\FOTS_CORE.CPP
/c /Zi /nologo /W3 /WX- /sdl /O2 /Oi /Oy- /GL /D _MBCS /Gm- /EHsc /MTd /GS /Gy /fp:precise /Zc:wchar_t /Zc:forScope /Fo"RELEASE\\" /Fd"RELEASE\VC110.PDB" /Gd /TP /analyze- C:\USERS\DRAGONART\DESKTOP\FOTS\FOTS_CORE\FOTS_CORE.CPP
