^C:\USERS\DRAGONART\DESKTOP\FOTS\FOTS_TEST\DEBUG\STDAFX.SBR|C:\USERS\DRAGONART\DESKTOP\FOTS\FOTS_TEST\DEBUG\TEST_FOTS_CORE.SBR|C:\USERS\DRAGONART\DESKTOP\FOTS\FOTS_TEST\DEBUG\TEST_GRANTSAM.SBR|C:\USERS\DRAGONART\DESKTOP\FOTS\FOTS_TEST\DEBUG\TEST_NUCLEOTIDE.SBR
C:\WINDOWS\SYSTEM32\TZRES.DLL
C:\USERS\DRAGONART\DESKTOP\FOTS\FOTS_TEST\DEBUG\STDAFX.SBR
C:\USERS\DRAGONART\DESKTOP\FOTS\FOTS_TEST\DEBUG\TEST_FOTS_CORE.SBR
C:\USERS\DRAGONART\DESKTOP\FOTS\FOTS_TEST\DEBUG\TEST_GRANTSAM.SBR
C:\USERS\DRAGONART\DESKTOP\FOTS\FOTS_TEST\DEBUG\TEST_NUCLEOTIDE.SBR
