^C:\USERS\DRAGONART\DESKTOP\FOTS\FOTS_TEST\STDAFX.CPP
/c /I"C:\Program Files (x86)\Microsoft Visual Studio 11.0\VC\UnitTest\include" /ZI /nologo /W3 /WX- /Od /Oy- /D WIN32 /D _DEBUG /D _WINDLL /D _UNICODE /D UNICODE /Gm /EHsc /RTC1 /MTd /GS /fp:precise /Zc:wchar_t /Zc:forScope /Yc"stdafx.h" /Fp"DEBUG\FOTS_TEST.PCH" /Fo"DEBUG\\" /Fd"DEBUG\VC110.PDB" /FR"Debug\\" /Gd /TP /analyze- /FC C:\USERS\DRAGONART\DESKTOP\FOTS\FOTS_TEST\STDAFX.CPP
^C:\USERS\DRAGONART\DESKTOP\FOTS\FOTS_TEST\TEST_NUCLEOTIDE.CPP
/c /I"C:\Program Files (x86)\Microsoft Visual Studio 11.0\VC\UnitTest\include" /ZI /nologo /W3 /WX- /Od /Oy- /D WIN32 /D _DEBUG /D _WINDLL /D _UNICODE /D UNICODE /Gm /EHsc /RTC1 /MTd /GS /fp:precise /Zc:wchar_t /Zc:forScope /Yu"stdafx.h" /Fp"DEBUG\FOTS_TEST.PCH" /Fo"DEBUG\\" /Fd"DEBUG\VC110.PDB" /FR"Debug\\" /Gd /TP /analyze- /FC C:\USERS\DRAGONART\DESKTOP\FOTS\FOTS_TEST\TEST_NUCLEOTIDE.CPP
^C:\USERS\DRAGONART\DESKTOP\FOTS\FOTS_TEST\TEST_FOTS_CORE.CPP
/c /I"C:\Program Files (x86)\Microsoft Visual Studio 11.0\VC\UnitTest\include" /ZI /nologo /W3 /WX- /Od /Oy- /D WIN32 /D _DEBUG /D _WINDLL /D _UNICODE /D UNICODE /Gm /EHsc /RTC1 /MTd /GS /fp:precise /Zc:wchar_t /Zc:forScope /Yu"stdafx.h" /Fp"DEBUG\FOTS_TEST.PCH" /Fo"DEBUG\\" /Fd"DEBUG\VC110.PDB" /FR"Debug\\" /Gd /TP /analyze- /FC C:\USERS\DRAGONART\DESKTOP\FOTS\FOTS_TEST\TEST_FOTS_CORE.CPP
^C:\USERS\DRAGONART\DESKTOP\FOTS\FOTS_TEST\TEST_GRANTSAM.CPP
/c /I"C:\Program Files (x86)\Microsoft Visual Studio 11.0\VC\UnitTest\include" /ZI /nologo /W3 /WX- /Od /Oy- /D WIN32 /D _DEBUG /D _WINDLL /D _UNICODE /D UNICODE /Gm /EHsc /RTC1 /MTd /GS /fp:precise /Zc:wchar_t /Zc:forScope /Yu"stdafx.h" /Fp"DEBUG\FOTS_TEST.PCH" /Fo"DEBUG\\" /Fd"DEBUG\VC110.PDB" /FR"Debug\\" /Gd /TP /analyze- /FC C:\USERS\DRAGONART\DESKTOP\FOTS\FOTS_TEST\TEST_GRANTSAM.CPP
